aula4/parte4/simulation/qsim/FreqDivider_Demo.msim.vcd
$comment
	File created using the following command:
		vcd file FreqDivider_Demo.msim.vcd -direction
$end
$date
	Sun Mar 19 20:27:34 2023
$end
$version
	ModelSim Version 2020.1
$end
$timescale
	1ps
$end

$scope module freqdividertest_vhd_vec_tst $end
$var wire 1 ! clkIn $end
$var wire 1 " clkOut $end
$var wire 1 # k [31] $end
$var wire 1 $ k [30] $end
$var wire 1 % k [29] $end
$var wire 1 & k [28] $end
$var wire 1 ' k [27] $end
$var wire 1 ( k [26] $end
$var wire 1 ) k [25] $end
$var wire 1 * k [24] $end
$var wire 1 + k [23] $end
$var wire 1 , k [22] $end
$var wire 1 - k [21] $end
$var wire 1 . k [20] $end
$var wire 1 / k [19] $end
$var wire 1 0 k [18] $end
$var wire 1 1 k [17] $end
$var wire 1 2 k [16] $end
$var wire 1 3 k [15] $end
$var wire 1 4 k [14] $end
$var wire 1 5 k [13] $end
$var wire 1 6 k [12] $end
$var wire 1 7 k [11] $end
$var wire 1 8 k [10] $end
$var wire 1 9 k [9] $end
$var wire 1 : k [8] $end
$var wire 1 ; k [7] $end
$var wire 1 < k [6] $end
$var wire 1 = k [5] $end
$var wire 1 > k [4] $end
$var wire 1 ? k [3] $end
$var wire 1 @ k [2] $end
$var wire 1 A k [1] $end
$var wire 1 B k [0] $end

$scope module i1 $end
$var wire 1 C gnd $end
$var wire 1 D vcc $end
$var wire 1 E unknown $end
$var wire 1 F devoe $end
$var wire 1 G devclrn $end
$var wire 1 H devpor $end
$var wire 1 I ww_devoe $end
$var wire 1 J ww_devclrn $end
$var wire 1 K ww_devpor $end
$var wire 1 L ww_clkOut $end
$var wire 1 M ww_clkIn $end
$var wire 1 N ww_k [31] $end
$var wire 1 O ww_k [30] $end
$var wire 1 P ww_k [29] $end
$var wire 1 Q ww_k [28] $end
$var wire 1 R ww_k [27] $end
$var wire 1 S ww_k [26] $end
$var wire 1 T ww_k [25] $end
$var wire 1 U ww_k [24] $end
$var wire 1 V ww_k [23] $end
$var wire 1 W ww_k [22] $end
$var wire 1 X ww_k [21] $end
$var wire 1 Y ww_k [20] $end
$var wire 1 Z ww_k [19] $end
$var wire 1 [ ww_k [18] $end
$var wire 1 \ ww_k [17] $end
$var wire 1 ] ww_k [16] $end
$var wire 1 ^ ww_k [15] $end
$var wire 1 _ ww_k [14] $end
$var wire 1 ` ww_k [13] $end
$var wire 1 a ww_k [12] $end
$var wire 1 b ww_k [11] $end
$var wire 1 c ww_k [10] $end
$var wire 1 d ww_k [9] $end
$var wire 1 e ww_k [8] $end
$var wire 1 f ww_k [7] $end
$var wire 1 g ww_k [6] $end
$var wire 1 h ww_k [5] $end
$var wire 1 i ww_k [4] $end
$var wire 1 j ww_k [3] $end
$var wire 1 k ww_k [2] $end
$var wire 1 l ww_k [1] $end
$var wire 1 m ww_k [0] $end
$var wire 1 n \clkIn~inputclkctrl_INCLK_bus\ [3] $end
$var wire 1 o \clkIn~inputclkctrl_INCLK_bus\ [2] $end
$var wire 1 p \clkIn~inputclkctrl_INCLK_bus\ [1] $end
$var wire 1 q \clkIn~inputclkctrl_INCLK_bus\ [0] $end
$var wire 1 r \k[0]~input_o\ $end
$var wire 1 s \clkOut~output_o\ $end
$var wire 1 t \clkIn~input_o\ $end
$var wire 1 u \clkIn~inputclkctrl_outclk\ $end
$var wire 1 v \k[31]~input_o\ $end
$var wire 1 w \k[30]~input_o\ $end
$var wire 1 x \k[29]~input_o\ $end
$var wire 1 y \k[28]~input_o\ $end
$var wire 1 z \k[27]~input_o\ $end
$var wire 1 { \k[26]~input_o\ $end
$var wire 1 | \k[25]~input_o\ $end
$var wire 1 } \k[24]~input_o\ $end
$var wire 1 ~ \k[23]~input_o\ $end
$var wire 1 !! \k[22]~input_o\ $end
$var wire 1 "! \k[21]~input_o\ $end
$var wire 1 #! \k[20]~input_o\ $end
$var wire 1 $! \k[19]~input_o\ $end
$var wire 1 %! \k[18]~input_o\ $end
$var wire 1 &! \k[17]~input_o\ $end
$var wire 1 '! \k[16]~input_o\ $end
$var wire 1 (! \k[15]~input_o\ $end
$var wire 1 )! \k[14]~input_o\ $end
$var wire 1 *! \k[13]~input_o\ $end
$var wire 1 +! \k[12]~input_o\ $end
$var wire 1 ,! \k[11]~input_o\ $end
$var wire 1 -! \k[10]~input_o\ $end
$var wire 1 .! \k[9]~input_o\ $end
$var wire 1 /! \k[8]~input_o\ $end
$var wire 1 0! \k[7]~input_o\ $end
$var wire 1 1! \k[6]~input_o\ $end
$var wire 1 2! \k[5]~input_o\ $end
$var wire 1 3! \k[4]~input_o\ $end
$var wire 1 4! \k[3]~input_o\ $end
$var wire 1 5! \k[2]~input_o\ $end
$var wire 1 6! \inst|Add1~1\ $end
$var wire 1 7! \inst|Add1~3\ $end
$var wire 1 8! \inst|Add1~5\ $end
$var wire 1 9! \inst|Add1~7\ $end
$var wire 1 :! \inst|Add1~9\ $end
$var wire 1 ;! \inst|Add1~11\ $end
$var wire 1 <! \inst|Add1~13\ $end
$var wire 1 =! \inst|Add1~15\ $end
$var wire 1 >! \inst|Add1~17\ $end
$var wire 1 ?! \inst|Add1~19\ $end
$var wire 1 @! \inst|Add1~21\ $end
$var wire 1 A! \inst|Add1~23\ $end
$var wire 1 B! \inst|Add1~25\ $end
$var wire 1 C! \inst|Add1~27\ $end
$var wire 1 D! \inst|Add1~29\ $end
$var wire 1 E! \inst|Add1~31\ $end
$var wire 1 F! \inst|Add1~33\ $end
$var wire 1 G! \inst|Add1~35\ $end
$var wire 1 H! \inst|Add1~37\ $end
$var wire 1 I! \inst|Add1~39\ $end
$var wire 1 J! \inst|Add1~41\ $end
$var wire 1 K! \inst|Add1~43\ $end
$var wire 1 L! \inst|Add1~45\ $end
$var wire 1 M! \inst|Add1~47\ $end
$var wire 1 N! \inst|Add1~49\ $end
$var wire 1 O! \inst|Add1~51\ $end
$var wire 1 P! \inst|Add1~53\ $end
$var wire 1 Q! \inst|Add1~55\ $end
$var wire 1 R! \inst|Add1~57\ $end
$var wire 1 S! \inst|Add1~59\ $end
$var wire 1 T! \inst|Add1~61\ $end
$var wire 1 U! \inst|Add1~62_combout\ $end
$var wire 1 V! \inst|Add1~60_combout\ $end
$var wire 1 W! \inst|s_counter[0]~32_combout\ $end
$var wire 1 X! \k[1]~input_o\ $end
$var wire 1 Y! \inst|Add0~1\ $end
$var wire 1 Z! \inst|Add0~3\ $end
$var wire 1 [! \inst|Add0~5\ $end
$var wire 1 \! \inst|Add0~7\ $end
$var wire 1 ]! \inst|Add0~9\ $end
$var wire 1 ^! \inst|Add0~11\ $end
$var wire 1 _! \inst|Add0~13\ $end
$var wire 1 `! \inst|Add0~15\ $end
$var wire 1 a! \inst|Add0~17\ $end
$var wire 1 b! \inst|Add0~19\ $end
$var wire 1 c! \inst|Add0~21\ $end
$var wire 1 d! \inst|Add0~23\ $end
$var wire 1 e! \inst|Add0~25\ $end
$var wire 1 f! \inst|Add0~27\ $end
$var wire 1 g! \inst|Add0~29\ $end
$var wire 1 h! \inst|Add0~31\ $end
$var wire 1 i! \inst|Add0~33\ $end
$var wire 1 j! \inst|Add0~35\ $end
$var wire 1 k! \inst|Add0~36_combout\ $end
$var wire 1 l! \inst|Add0~37\ $end
$var wire 1 m! \inst|Add0~38_combout\ $end
$var wire 1 n! \inst|Equal0~11_combout\ $end
$var wire 1 o! \inst|Add0~39\ $end
$var wire 1 p! \inst|Add0~40_combout\ $end
$var wire 1 q! \inst|Add0~41\ $end
$var wire 1 r! \inst|Add0~42_combout\ $end
$var wire 1 s! \inst|Equal0~12_combout\ $end
$var wire 1 t! \inst|Add0~32_combout\ $end
$var wire 1 u! \inst|Add0~34_combout\ $end
$var wire 1 v! \inst|Equal0~10_combout\ $end
$var wire 1 w! \inst|Add0~43\ $end
$var wire 1 x! \inst|Add0~45\ $end
$var wire 1 y! \inst|Add0~46_combout\ $end
$var wire 1 z! \inst|Add0~44_combout\ $end
$var wire 1 {! \inst|Equal0~13_combout\ $end
$var wire 1 |! \inst|Equal0~14_combout\ $end
$var wire 1 }! \inst|Add0~12_combout\ $end
$var wire 1 ~! \inst|Add0~14_combout\ $end
$var wire 1 !" \inst|Equal0~3_combout\ $end
$var wire 1 "" \inst|Add0~6_combout\ $end
$var wire 1 #" \inst|Add0~4_combout\ $end
$var wire 1 $" \inst|Equal0~1_combout\ $end
$var wire 1 %" \inst|Add0~10_combout\ $end
$var wire 1 &" \inst|Add0~8_combout\ $end
$var wire 1 '" \inst|Equal0~2_combout\ $end
$var wire 1 (" \inst|Add0~2_combout\ $end
$var wire 1 )" \inst|Add0~0_combout\ $end
$var wire 1 *" \inst|Equal0~0_combout\ $end
$var wire 1 +" \inst|Equal0~4_combout\ $end
$var wire 1 ," \inst|Add0~47\ $end
$var wire 1 -" \inst|Add0~49\ $end
$var wire 1 ." \inst|Add0~51\ $end
$var wire 1 /" \inst|Add0~52_combout\ $end
$var wire 1 0" \inst|Add0~53\ $end
$var wire 1 1" \inst|Add0~54_combout\ $end
$var wire 1 2" \inst|Equal0~16_combout\ $end
$var wire 1 3" \inst|Add0~55\ $end
$var wire 1 4" \inst|Add0~57\ $end
$var wire 1 5" \inst|Add0~59\ $end
$var wire 1 6" \inst|Add0~61\ $end
$var wire 1 7" \inst|Add0~62_combout\ $end
$var wire 1 8" \inst|Add0~60_combout\ $end
$var wire 1 9" \inst|Equal0~18_combout\ $end
$var wire 1 :" \inst|Add0~56_combout\ $end
$var wire 1 ;" \inst|Add0~58_combout\ $end
$var wire 1 <" \inst|Equal0~17_combout\ $end
$var wire 1 =" \inst|Add0~48_combout\ $end
$var wire 1 >" \inst|Add0~50_combout\ $end
$var wire 1 ?" \inst|Equal0~15_combout\ $end
$var wire 1 @" \inst|Equal0~19_combout\ $end
$var wire 1 A" \inst|Add0~20_combout\ $end
$var wire 1 B" \inst|Add0~22_combout\ $end
$var wire 1 C" \inst|Equal0~6_combout\ $end
$var wire 1 D" \inst|Add0~18_combout\ $end
$var wire 1 E" \inst|Add0~16_combout\ $end
$var wire 1 F" \inst|Equal0~5_combout\ $end
$var wire 1 G" \inst|Add0~24_combout\ $end
$var wire 1 H" \inst|Add0~26_combout\ $end
$var wire 1 I" \inst|Equal0~7_combout\ $end
$var wire 1 J" \inst|Add0~30_combout\ $end
$var wire 1 K" \inst|Add0~28_combout\ $end
$var wire 1 L" \inst|Equal0~8_combout\ $end
$var wire 1 M" \inst|Equal0~9_combout\ $end
$var wire 1 N" \inst|Equal0~20_combout\ $end
$var wire 1 O" \inst|s_counter[0]~33\ $end
$var wire 1 P" \inst|s_counter[1]~34_combout\ $end
$var wire 1 Q" \inst|s_counter[1]~35\ $end
$var wire 1 R" \inst|s_counter[2]~36_combout\ $end
$var wire 1 S" \inst|s_counter[2]~37\ $end
$var wire 1 T" \inst|s_counter[3]~38_combout\ $end
$var wire 1 U" \inst|s_counter[3]~39\ $end
$var wire 1 V" \inst|s_counter[4]~40_combout\ $end
$var wire 1 W" \inst|s_counter[4]~41\ $end
$var wire 1 X" \inst|s_counter[5]~42_combout\ $end
$var wire 1 Y" \inst|s_counter[5]~43\ $end
$var wire 1 Z" \inst|s_counter[6]~44_combout\ $end
$var wire 1 [" \inst|s_counter[6]~45\ $end
$var wire 1 \" \inst|s_counter[7]~46_combout\ $end
$var wire 1 ]" \inst|s_counter[7]~47\ $end
$var wire 1 ^" \inst|s_counter[8]~48_combout\ $end
$var wire 1 _" \inst|s_counter[8]~49\ $end
$var wire 1 `" \inst|s_counter[9]~50_combout\ $end
$var wire 1 a" \inst|s_counter[9]~51\ $end
$var wire 1 b" \inst|s_counter[10]~52_combout\ $end
$var wire 1 c" \inst|s_counter[10]~53\ $end
$var wire 1 d" \inst|s_counter[11]~54_combout\ $end
$var wire 1 e" \inst|s_counter[11]~55\ $end
$var wire 1 f" \inst|s_counter[12]~56_combout\ $end
$var wire 1 g" \inst|s_counter[12]~57\ $end
$var wire 1 h" \inst|s_counter[13]~58_combout\ $end
$var wire 1 i" \inst|s_counter[13]~59\ $end
$var wire 1 j" \inst|s_counter[14]~60_combout\ $end
$var wire 1 k" \inst|s_counter[14]~61\ $end
$var wire 1 l" \inst|s_counter[15]~62_combout\ $end
$var wire 1 m" \inst|s_counter[15]~63\ $end
$var wire 1 n" \inst|s_counter[16]~64_combout\ $end
$var wire 1 o" \inst|s_counter[16]~65\ $end
$var wire 1 p" \inst|s_counter[17]~66_combout\ $end
$var wire 1 q" \inst|s_counter[17]~67\ $end
$var wire 1 r" \inst|s_counter[18]~68_combout\ $end
$var wire 1 s" \inst|s_counter[18]~69\ $end
$var wire 1 t" \inst|s_counter[19]~70_combout\ $end
$var wire 1 u" \inst|s_counter[19]~71\ $end
$var wire 1 v" \inst|s_counter[20]~72_combout\ $end
$var wire 1 w" \inst|s_counter[20]~73\ $end
$var wire 1 x" \inst|s_counter[21]~74_combout\ $end
$var wire 1 y" \inst|s_counter[21]~75\ $end
$var wire 1 z" \inst|s_counter[22]~76_combout\ $end
$var wire 1 {" \inst|s_counter[22]~77\ $end
$var wire 1 |" \inst|s_counter[23]~78_combout\ $end
$var wire 1 }" \inst|s_counter[23]~79\ $end
$var wire 1 ~" \inst|s_counter[24]~80_combout\ $end
$var wire 1 !# \inst|s_counter[24]~81\ $end
$var wire 1 "# \inst|s_counter[25]~82_combout\ $end
$var wire 1 ## \inst|s_counter[25]~83\ $end
$var wire 1 $# \inst|s_counter[26]~84_combout\ $end
$var wire 1 %# \inst|s_counter[26]~85\ $end
$var wire 1 &# \inst|s_counter[27]~86_combout\ $end
$var wire 1 '# \inst|s_counter[27]~87\ $end
$var wire 1 (# \inst|s_counter[28]~88_combout\ $end
$var wire 1 )# \inst|s_counter[28]~89\ $end
$var wire 1 *# \inst|s_counter[29]~90_combout\ $end
$var wire 1 +# \inst|s_counter[29]~91\ $end
$var wire 1 ,# \inst|s_counter[30]~92_combout\ $end
$var wire 1 -# \inst|s_counter[30]~93\ $end
$var wire 1 .# \inst|s_counter[31]~94_combout\ $end
$var wire 1 /# \inst|clkOut~18_combout\ $end
$var wire 1 0# \inst|Add1~52_combout\ $end
$var wire 1 1# \inst|Add1~54_combout\ $end
$var wire 1 2# \inst|clkOut~16_combout\ $end
$var wire 1 3# \inst|Add1~56_combout\ $end
$var wire 1 4# \inst|Add1~58_combout\ $end
$var wire 1 5# \inst|clkOut~17_combout\ $end
$var wire 1 6# \inst|Add1~50_combout\ $end
$var wire 1 7# \inst|Add1~48_combout\ $end
$var wire 1 8# \inst|clkOut~15_combout\ $end
$var wire 1 9# \inst|clkOut~19_combout\ $end
$var wire 1 :# \inst|Add1~46_combout\ $end
$var wire 1 ;# \inst|Add1~44_combout\ $end
$var wire 1 <# \inst|clkOut~13_combout\ $end
$var wire 1 =# \inst|Add1~32_combout\ $end
$var wire 1 ># \inst|Add1~34_combout\ $end
$var wire 1 ?# \inst|clkOut~10_combout\ $end
$var wire 1 @# \inst|Add1~38_combout\ $end
$var wire 1 A# \inst|Add1~36_combout\ $end
$var wire 1 B# \inst|clkOut~11_combout\ $end
$var wire 1 C# \inst|Add1~42_combout\ $end
$var wire 1 D# \inst|Add1~40_combout\ $end
$var wire 1 E# \inst|clkOut~12_combout\ $end
$var wire 1 F# \inst|clkOut~14_combout\ $end
$var wire 1 G# \inst|Add1~24_combout\ $end
$var wire 1 H# \inst|Add1~26_combout\ $end
$var wire 1 I# \inst|clkOut~7_combout\ $end
$var wire 1 J# \inst|Add1~16_combout\ $end
$var wire 1 K# \inst|Add1~18_combout\ $end
$var wire 1 L# \inst|clkOut~5_combout\ $end
$var wire 1 M# \inst|Add1~30_combout\ $end
$var wire 1 N# \inst|Add1~28_combout\ $end
$var wire 1 O# \inst|clkOut~8_combout\ $end
$var wire 1 P# \inst|Add1~20_combout\ $end
$var wire 1 Q# \inst|Add1~22_combout\ $end
$var wire 1 R# \inst|clkOut~6_combout\ $end
$var wire 1 S# \inst|clkOut~9_combout\ $end
$var wire 1 T# \inst|Add1~10_combout\ $end
$var wire 1 U# \inst|Add1~8_combout\ $end
$var wire 1 V# \inst|clkOut~2_combout\ $end
$var wire 1 W# \inst|Add1~2_combout\ $end
$var wire 1 X# \inst|Add1~0_combout\ $end
$var wire 1 Y# \inst|clkOut~0_combout\ $end
$var wire 1 Z# \inst|Add1~6_combout\ $end
$var wire 1 [# \inst|Add1~4_combout\ $end
$var wire 1 \# \inst|clkOut~1_combout\ $end
$var wire 1 ]# \inst|Add1~14_combout\ $end
$var wire 1 ^# \inst|Add1~12_combout\ $end
$var wire 1 _# \inst|clkOut~3_combout\ $end
$var wire 1 `# \inst|clkOut~4_combout\ $end
$var wire 1 a# \inst|clkOut~20_combout\ $end
$var wire 1 b# \inst|clkOut~21_combout\ $end
$var wire 1 c# \inst|clkOut~q\ $end
$var wire 1 d# \inst|s_counter\ [31] $end
$var wire 1 e# \inst|s_counter\ [30] $end
$var wire 1 f# \inst|s_counter\ [29] $end
$var wire 1 g# \inst|s_counter\ [28] $end
$var wire 1 h# \inst|s_counter\ [27] $end
$var wire 1 i# \inst|s_counter\ [26] $end
$var wire 1 j# \inst|s_counter\ [25] $end
$var wire 1 k# \inst|s_counter\ [24] $end
$var wire 1 l# \inst|s_counter\ [23] $end
$var wire 1 m# \inst|s_counter\ [22] $end
$var wire 1 n# \inst|s_counter\ [21] $end
$var wire 1 o# \inst|s_counter\ [20] $end
$var wire 1 p# \inst|s_counter\ [19] $end
$var wire 1 q# \inst|s_counter\ [18] $end
$var wire 1 r# \inst|s_counter\ [17] $end
$var wire 1 s# \inst|s_counter\ [16] $end
$var wire 1 t# \inst|s_counter\ [15] $end
$var wire 1 u# \inst|s_counter\ [14] $end
$var wire 1 v# \inst|s_counter\ [13] $end
$var wire 1 w# \inst|s_counter\ [12] $end
$var wire 1 x# \inst|s_counter\ [11] $end
$var wire 1 y# \inst|s_counter\ [10] $end
$var wire 1 z# \inst|s_counter\ [9] $end
$var wire 1 {# \inst|s_counter\ [8] $end
$var wire 1 |# \inst|s_counter\ [7] $end
$var wire 1 }# \inst|s_counter\ [6] $end
$var wire 1 ~# \inst|s_counter\ [5] $end
$var wire 1 !$ \inst|s_counter\ [4] $end
$var wire 1 "$ \inst|s_counter\ [3] $end
$var wire 1 #$ \inst|s_counter\ [2] $end
$var wire 1 $$ \inst|s_counter\ [1] $end
$var wire 1 %$ \inst|s_counter\ [0] $end
$upscope $end
$upscope $end
$enddefinitions $end
#0
$dumpvars
0!
0"
0C
1D
xE
1F
1G
1H
1I
1J
1K
0L
0M
0r
0s
0t
0u
0v
0w
0x
0y
0z
0{
0|
0}
0~
0!!
0"!
0#!
0$!
0%!
0&!
0'!
0(!
0)!
0*!
0+!
0,!
0-!
0.!
0/!
00!
01!
02!
03!
04!
15!
16!
07!
18!
09!
1:!
0;!
1<!
0=!
1>!
0?!
1@!
0A!
1B!
0C!
1D!
0E!
1F!
0G!
1H!
0I!
1J!
0K!
1L!
0M!
1N!
0O!
1P!
0Q!
1R!
0S!
1T!
0U!
0V!
1W!
0X!
0Y!
0Z!
1[!
0\!
1]!
0^!
1_!
0`!
1a!
0b!
1c!
0d!
1e!
0f!
1g!
0h!
1i!
0j!
0k!
1l!
0m!
1n!
0o!
0p!
1q!
0r!
1s!
0t!
0u!
1v!
0w!
1x!
0y!
0z!
1{!
1|!
0}!
0~!
1!"
0""
0#"
1$"
0%"
0&"
1'"
0("
1)"
0*"
0+"
0,"
1-"
0."
0/"
10"
01"
12"
03"
14"
05"
16"
07"
08"
19"
0:"
0;"
1<"
0="
0>"
1?"
1@"
0A"
0B"
1C"
0D"
0E"
1F"
0G"
0H"
1I"
0J"
0K"
1L"
1M"
0N"
0O"
0P"
1Q"
0R"
0S"
0T"
1U"
0V"
0W"
0X"
1Y"
0Z"
0["
0\"
1]"
0^"
0_"
0`"
1a"
0b"
0c"
0d"
1e"
0f"
0g"
0h"
1i"
0j"
0k"
0l"
1m"
0n"
0o"
0p"
1q"
0r"
0s"
0t"
1u"
0v"
0w"
0x"
1y"
0z"
0{"
0|"
1}"
0~"
0!#
0"#
1##
0$#
0%#
0&#
1'#
0(#
0)#
0*#
1+#
0,#
0-#
0.#
1/#
00#
01#
12#
03#
04#
15#
06#
07#
18#
19#
0:#
0;#
1<#
0=#
0>#
1?#
0@#
0A#
1B#
0C#
0D#
1E#
1F#
0G#
0H#
1I#
0J#
0K#
1L#
0M#
0N#
1O#
0P#
0Q#
1R#
1S#
0T#
0U#
1V#
0W#
0X#
1Y#
0Z#
0[#
1\#
0]#
0^#
1_#
1`#
1a#
1b#
0c#
0#
0$
0%
0&
0'
0(
0)
0*
0+
0,
0-
0.
0/
00
01
02
03
04
05
06
07
08
09
0:
0;
0<
0=
0>
0?
1@
0A
0B
0N
0O
0P
0Q
0R
0S
0T
0U
0V
0W
0X
0Y
0Z
0[
0\
0]
0^
0_
0`
0a
0b
0c
0d
0e
0f
0g
0h
0i
0j
1k
0l
0m
0d#
0e#
0f#
0g#
0h#
0i#
0j#
0k#
0l#
0m#
0n#
0o#
0p#
0q#
0r#
0s#
0t#
0u#
0v#
0w#
0x#
0y#
0z#
0{#
0|#
0}#
0~#
0!$
0"$
0#$
0$$
0%$
1n
1o
1p
0q
$end
#10000
1!
1M
1t
1q
1u
1%$
1c#
0W!
1O"
1*"
0Y#
0`#
1+"
1P"
1s
1N"
0a#
1L
1"
0b#
#20000
0!
0M
0t
0q
0u
#30000
1!
1M
1t
1q
1u
0%$
0c#
1W!
0O"
0*"
1Y#
1`#
0+"
0P"
0s
0N"
1a#
0L
0"
1b#
#40000
0!
0M
0t
0q
0u
#50000
1!
1M
1t
1q
1u
1%$
1c#
0W!
1O"
1*"
0Y#
0`#
1+"
1P"
1s
1N"
0a#
1L
1"
0b#
#60000
0!
0M
0t
0q
0u
#70000
1!
1M
1t
1q
1u
0%$
0c#
1W!
0O"
0*"
1Y#
1`#
0+"
0P"
0s
0N"
1a#
0L
0"
1b#
#80000
0!
0M
0t
0q
0u
#90000
1!
1M
1t
1q
1u
1%$
1c#
0W!
1O"
1*"
0Y#
0`#
1+"
1P"
1s
1N"
0a#
1L
1"
0b#
#100000
0!
0M
0t
0q
0u
#110000
1!
1M
1t
1q
1u
0%$
0c#
1W!
0O"
0*"
1Y#
1`#
0+"
0P"
0s
0N"
1a#
0L
0"
1b#
#120000
0!
0M
0t
0q
0u
#130000
1!
1M
1t
1q
1u
1%$
1c#
0W!
1O"
1*"
0Y#
0`#
1+"
1P"
1s
1N"
0a#
1L
1"
0b#
#140000
0!
0M
0t
0q
0u
#150000
1!
1M
1t
1q
1u
0%$
0c#
1W!
0O"
0*"
1Y#
1`#
0+"
0P"
0s
0N"
1a#
0L
0"
1b#
#160000
0!
0M
0t
0q
0u
#170000
1!
1M
1t
1q
1u
1%$
1c#
0W!
1O"
1*"
0Y#
0`#
1+"
1P"
1s
1N"
0a#
1L
1"
0b#
#180000
0!
0M
0t
0q
0u
#190000
1!
1M
1t
1q
1u
0%$
0c#
1W!
0O"
0*"
1Y#
1`#
0+"
0P"
0s
0N"
1a#
0L
0"
1b#
#200000
0!
0M
0t
0q
0u
#210000
1!
1M
1t
1q
1u
1%$
1c#
0W!
1O"
1*"
0Y#
0`#
1+"
1P"
1s
1N"
0a#
1L
1"
0b#
#220000
0!
0M
0t
0q
0u
#230000
1!
1M
1t
1q
1u
0%$
0c#
1W!
0O"
0*"
1Y#
1`#
0+"
0P"
0s
0N"
1a#
0L
0"
1b#
#240000
0!
0M
0t
0q
0u
#250000
1!
1M
1t
1q
1u
1%$
1c#
0W!
1O"
1*"
0Y#
0`#
1+"
1P"
1s
1N"
0a#
1L
1"
0b#
#260000
0!
0M
0t
0q
0u
#270000
1!
1M
1t
1q
1u
0%$
0c#
1W!
0O"
0*"
1Y#
1`#
0+"
0P"
0s
0N"
1a#
0L
0"
1b#
#280000
0!
0M
0t
0q
0u
#290000
1!
1M
1t
1q
1u
1%$
1c#
0W!
1O"
1*"
0Y#
0`#
1+"
1P"
1s
1N"
0a#
1L
1"
0b#
#300000
0!
0M
0t
0q
0u
#310000
1!
1M
1t
1q
1u
0%$
0c#
1W!
0O"
0*"
1Y#
1`#
0+"
0P"
0s
0N"
1a#
0L
0"
1b#
#320000
0!
0M
0t
0q
0u
#330000
1!
1M
1t
1q
1u
1%$
1c#
0W!
1O"
1*"
0Y#
0`#
1+"
1P"
1s
1N"
0a#
1L
1"
0b#
#340000
0!
0M
0t
0q
0u
#350000
1!
1M
1t
1q
1u
0%$
0c#
1W!
0O"
0*"
1Y#
1`#
0+"
0P"
0s
0N"
1a#
0L
0"
1b#
#360000
0!
0M
0t
0q
0u
#370000
1!
1M
1t
1q
1u
1%$
1c#
0W!
1O"
1*"
0Y#
0`#
1+"
1P"
1s
1N"
0a#
1L
1"
0b#
#380000
0!
0M
0t
0q
0u
#390000
1!
1M
1t
1q
1u
0%$
0c#
1W!
0O"
0*"
1Y#
1`#
0+"
0P"
0s
0N"
1a#
0L
0"
1b#
#400000
0!
0M
0t
0q
0u
#410000
1!
1M
1t
1q
1u
1%$
1c#
0W!
1O"
1*"
0Y#
0`#
1+"
1P"
1s
1N"
0a#
1L
1"
0b#
#420000
0!
0M
0t
0q
0u
#430000
1!
1M
1t
1q
1u
0%$
0c#
1W!
0O"
0*"
1Y#
1`#
0+"
0P"
0s
0N"
1a#
0L
0"
1b#
#440000
0!
0M
0t
0q
0u
#450000
1!
1M
1t
1q
1u
1%$
1c#
0W!
1O"
1*"
0Y#
0`#
1+"
1P"
1s
1N"
0a#
1L
1"
0b#
#460000
0!
0M
0t
0q
0u
#470000
1!
1M
1t
1q
1u
0%$
0c#
1W!
0O"
0*"
1Y#
1`#
0+"
0P"
0s
0N"
1a#
0L
0"
1b#
#480000
0!
0M
0t
0q
0u
#490000
1!
1M
1t
1q
1u
1%$
1c#
0W!
1O"
1*"
0Y#
0`#
1+"
1P"
1s
1N"
0a#
1L
1"
0b#
#500000
0!
0M
0t
0q
0u
#510000
1!
1M
1t
1q
1u
0%$
0c#
1W!
0O"
0*"
1Y#
1`#
0+"
0P"
0s
0N"
1a#
0L
0"
1b#
#520000
0!
0M
0t
0q
0u
#530000
1!
1M
1t
1q
1u
1%$
1c#
0W!
1O"
1*"
0Y#
0`#
1+"
1P"
1s
1N"
0a#
1L
1"
0b#
#540000
0!
0M
0t
0q
0u
#550000
1!
1M
1t
1q
1u
0%$
0c#
1W!
0O"
0*"
1Y#
1`#
0+"
0P"
0s
0N"
1a#
0L
0"
1b#
#560000
0!
0M
0t
0q
0u
#570000
1!
1M
1t
1q
1u
1%$
1c#
0W!
1O"
1*"
0Y#
0`#
1+"
1P"
1s
1N"
0a#
1L
1"
0b#
#580000
0!
0M
0t
0q
0u
#590000
1!
1M
1t
1q
1u
0%$
0c#
1W!
0O"
0*"
1Y#
1`#
0+"
0P"
0s
0N"
1a#
0L
0"
1b#
#600000
0!
0M
0t
0q
0u
#610000
1!
1M
1t
1q
1u
1%$
1c#
0W!
1O"
1*"
0Y#
0`#
1+"
1P"
1s
1N"
0a#
1L
1"
0b#
#620000
0!
0M
0t
0q
0u
#630000
1!
1M
1t
1q
1u
0%$
0c#
1W!
0O"
0*"
1Y#
1`#
0+"
0P"
0s
0N"
1a#
0L
0"
1b#
#640000
0!
0M
0t
0q
0u
#650000
1!
1M
1t
1q
1u
1%$
1c#
0W!
1O"
1*"
0Y#
0`#
1+"
1P"
1s
1N"
0a#
1L
1"
0b#
#660000
0!
0M
0t
0q
0u
#670000
1!
1M
1t
1q
1u
0%$
0c#
1W!
0O"
0*"
1Y#
1`#
0+"
0P"
0s
0N"
1a#
0L
0"
1b#
#680000
0!
0M
0t
0q
0u
#690000
1!
1M
1t
1q
1u
1%$
1c#
0W!
1O"
1*"
0Y#
0`#
1+"
1P"
1s
1N"
0a#
1L
1"
0b#
#700000
0!
0M
0t
0q
0u
#710000
1!
1M
1t
1q
1u
0%$
0c#
1W!
0O"
0*"
1Y#
1`#
0+"
0P"
0s
0N"
1a#
0L
0"
1b#
#720000
0!
0M
0t
0q
0u
#730000
1!
1M
1t
1q
1u
1%$
1c#
0W!
1O"
1*"
0Y#
0`#
1+"
1P"
1s
1N"
0a#
1L
1"
0b#
#740000
0!
0M
0t
0q
0u
#750000
1!
1M
1t
1q
1u
0%$
0c#
1W!
0O"
0*"
1Y#
1`#
0+"
0P"
0s
0N"
1a#
0L
0"
1b#
#760000
0!
0M
0t
0q
0u
#770000
1!
1M
1t
1q
1u
1%$
1c#
0W!
1O"
1*"
0Y#
0`#
1+"
1P"
1s
1N"
0a#
1L
1"
0b#
#780000
0!
0M
0t
0q
0u
#790000
1!
1M
1t
1q
1u
0%$
0c#
1W!
0O"
0*"
1Y#
1`#
0+"
0P"
0s
0N"
1a#
0L
0"
1b#
#800000
0!
0M
0t
0q
0u
#810000
1!
1M
1t
1q
1u
1%$
1c#
0W!
1O"
1*"
0Y#
0`#
1+"
1P"
1s
1N"
0a#
1L
1"
0b#
#820000
0!
0M
0t
0q
0u
#830000
1!
1M
1t
1q
1u
0%$
0c#
1W!
0O"
0*"
1Y#
1`#
0+"
0P"
0s
0N"
1a#
0L
0"
1b#
#840000
0!
0M
0t
0q
0u
#850000
1!
1M
1t
1q
1u
1%$
1c#
0W!
1O"
1*"
0Y#
0`#
1+"
1P"
1s
1N"
0a#
1L
1"
0b#
#860000
0!
0M
0t
0q
0u
#870000
1!
1M
1t
1q
1u
0%$
0c#
1W!
0O"
0*"
1Y#
1`#
0+"
0P"
0s
0N"
1a#
0L
0"
1b#
#880000
0!
0M
0t
0q
0u
