aula1/parte2/simulation/qsim/VHDLDemo.msim.vcd
$comment
	File created using the following command:
		vcd file VHDLDemo.msim.vcd -direction
$end
$date
	Sun Feb 19 20:00:01 2023
$end
$version
	ModelSim Version 2020.1
$end
$timescale
	1ps
$end

$scope module nand2gate_vhd_vec_tst $end
$var wire 1 ! inPort0 $end
$var wire 1 " inPort1 $end
$var wire 1 # outPort $end

$scope module i1 $end
$var wire 1 $ gnd $end
$var wire 1 % vcc $end
$var wire 1 & unknown $end
$var wire 1 ' devoe $end
$var wire 1 ( devclrn $end
$var wire 1 ) devpor $end
$var wire 1 * ww_devoe $end
$var wire 1 + ww_devclrn $end
$var wire 1 , ww_devpor $end
$var wire 1 - ww_inPort0 $end
$var wire 1 . ww_inPort1 $end
$var wire 1 / ww_outPort $end
$var wire 1 0 \outPort~output_o\ $end
$var wire 1 1 \inPort0~input_o\ $end
$var wire 1 2 \inPort1~input_o\ $end
$var wire 1 3 \and_gate|outPort~combout\ $end
$var wire 1 4 \and_gate|ALT_INV_outPort~combout\ $end
$upscope $end
$upscope $end
$enddefinitions $end
#0
$dumpvars
0!
0"
1#
0$
1%
x&
1'
1(
1)
1*
1+
1,
0-
0.
1/
10
01
02
03
14
$end
#30000
1"
1.
12
#40000
1!
1-
11
13
04
00
0/
0#
#100000
0!
0-
01
03
14
10
1/
1#
#150000
0"
0.
02
#230000
1!
1-
11
#280000
1"
1.
12
13
04
00
0/
0#
#330000
0!
0-
01
03
14
10
1/
1#
#420000
0"
0.
02
#450000
1!
1-
11
#530000
1"
1.
12
13
04
00
0/
0#
#560000
0!
0-
01
03
14
10
1/
1#
#690000
0"
0.
02
#700000
1!
1-
11
#820000
1"
1.
12
13
04
00
0/
0#
#900000
0"
0.
02
03
14
10
1/
1#
#920000
0!
0-
01
