aula2/parte2/simulation/qsim/Mux2_1Demo.msim.vcd
$comment
	File created using the following command:
		vcd file Mux2_1Demo.msim.vcd -direction
$end
$date
	Fri Feb 24 09:59:45 2023
$end
$version
	ModelSim Version 2020.1
$end
$timescale
	1ps
$end

$scope module mux2_1demo_vhd_vec_tst $end
$var wire 1 ! KEY [0] $end
$var wire 1 " LEDR [0] $end
$var wire 1 # SW [1] $end
$var wire 1 $ SW [0] $end

$scope module i1 $end
$var wire 1 % gnd $end
$var wire 1 & vcc $end
$var wire 1 ' unknown $end
$var wire 1 ( devoe $end
$var wire 1 ) devclrn $end
$var wire 1 * devpor $end
$var wire 1 + ww_devoe $end
$var wire 1 , ww_devclrn $end
$var wire 1 - ww_devpor $end
$var wire 1 . ww_LEDR [0] $end
$var wire 1 / ww_KEY [0] $end
$var wire 1 0 ww_SW [1] $end
$var wire 1 1 ww_SW [0] $end
$var wire 1 2 \LEDR[0]~output_o\ $end
$var wire 1 3 \SW[0]~input_o\ $end
$var wire 1 4 \SW[1]~input_o\ $end
$var wire 1 5 \KEY[0]~input_o\ $end
$var wire 1 6 \inst|dataOut~0_combout\ $end
$upscope $end
$upscope $end
$enddefinitions $end
#0
$dumpvars
0%
1&
x'
1(
1)
1*
1+
1,
1-
02
03
04
05
06
0!
0#
0$
0.
0/
00
01
0"
$end
#30000
1!
1/
15
#80000
1#
10
14
16
12
1.
1"
#120000
1$
11
13
#160000
0#
00
04
06
02
0.
0"
#200000
0!
0/
05
16
12
1.
1"
#240000
0$
01
03
06
02
0.
0"
#320000
1$
11
13
16
12
1.
1"
#360000
0$
1#
01
10
14
03
06
02
0.
0"
#430000
1!
1/
15
16
12
1.
1"
#480000
0#
00
04
06
02
0.
0"
#520000
1#
10
14
16
12
1.
1"
#560000
1$
11
13
#600000
0$
0#
01
00
04
03
06
02
0.
0"
#650000
0!
0/
05
#720000
1#
10
14
#760000
1$
11
13
16
12
1.
1"
#800000
0#
00
04
#840000
0$
01
03
06
02
0.
0"
#880000
1$
1#
11
10
14
13
16
12
1.
1"
#890000
1!
1/
15
#920000
0$
01
03
#960000
1$
11
13
#980000
0!
0/
05
