aula1/parte1/simulation/qsim/GateDemo.msim.vcd
$comment
	File created using the following command:
		vcd file GateDemo.msim.vcd -direction
$end
$date
	Sat Feb 18 20:47:07 2023
$end
$version
	ModelSim Version 2020.1
$end
$timescale
	1ps
$end

$scope module gatedemo_vhd_vec_tst $end
$var wire 1 ! LEDR [0] $end
$var wire 1 " SW [1] $end
$var wire 1 # SW [0] $end

$scope module i1 $end
$var wire 1 $ gnd $end
$var wire 1 % vcc $end
$var wire 1 & unknown $end
$var wire 1 ' devoe $end
$var wire 1 ( devclrn $end
$var wire 1 ) devpor $end
$var wire 1 * ww_devoe $end
$var wire 1 + ww_devclrn $end
$var wire 1 , ww_devpor $end
$var wire 1 - ww_LEDR [0] $end
$var wire 1 . ww_SW [1] $end
$var wire 1 / ww_SW [0] $end
$var wire 1 0 \LEDR[0]~output_o\ $end
$var wire 1 1 \SW[1]~input_o\ $end
$var wire 1 2 \SW[0]~input_o\ $end
$var wire 1 3 \AND2_1~combout\ $end
$upscope $end
$upscope $end
$enddefinitions $end
#0
$dumpvars
0$
1%
x&
1'
1(
1)
1*
1+
1,
00
01
02
03
0"
0#
0-
0.
0/
0!
$end
#70000
1#
1/
12
#140000
1"
1.
11
13
10
1-
1!
#180000
0#
0/
02
03
00
0-
0!
#220000
0"
0.
01
#300000
1"
1#
1/
1.
11
12
13
10
1-
1!
#380000
0"
0.
01
03
00
0-
0!
#480000
1"
1.
11
13
10
1-
1!
#490000
0#
0/
02
03
00
0-
0!
#540000
0"
0.
01
#580000
1#
1/
12
#650000
0#
0/
02
#730000
1"
1.
11
#750000
1#
1/
12
13
10
1-
1!
#810000
0"
0.
01
03
00
0-
0!
#900000
0#
0/
02
#920000
1"
1.
11
#980000
0"
0.
01
