aula5/parte3/simulation/qsim/TimerN_Demo.msim.vcd
$comment
	File created using the following command:
		vcd file TimerN_Demo.msim.vcd -direction
$end
$date
	Mon Apr  3 20:50:27 2023
$end
$version
	ModelSim Version 2020.1
$end
$timescale
	1ps
$end

$scope module timern_vhd_vec_tst $end
$var wire 1 ! clk $end
$var wire 1 " enable $end
$var wire 1 # reset $end
$var wire 1 $ start $end
$var wire 1 % timerOut $end

$scope module i1 $end
$var wire 1 & gnd $end
$var wire 1 ' vcc $end
$var wire 1 ( unknown $end
$var wire 1 ) devoe $end
$var wire 1 * devclrn $end
$var wire 1 + devpor $end
$var wire 1 , ww_devoe $end
$var wire 1 - ww_devclrn $end
$var wire 1 . ww_devpor $end
$var wire 1 / ww_start $end
$var wire 1 0 ww_reset $end
$var wire 1 1 ww_clk $end
$var wire 1 2 ww_enable $end
$var wire 1 3 ww_timerOut $end
$var wire 1 4 \clk~inputclkctrl_INCLK_bus\ [3] $end
$var wire 1 5 \clk~inputclkctrl_INCLK_bus\ [2] $end
$var wire 1 6 \clk~inputclkctrl_INCLK_bus\ [1] $end
$var wire 1 7 \clk~inputclkctrl_INCLK_bus\ [0] $end
$var wire 1 8 \timerOut~output_o\ $end
$var wire 1 9 \clk~input_o\ $end
$var wire 1 : \clk~inputclkctrl_outclk\ $end
$var wire 1 ; \s_count[0]~32_combout\ $end
$var wire 1 < \start~input_o\ $end
$var wire 1 = \s_count[0]~33\ $end
$var wire 1 > \s_count[1]~34_combout\ $end
$var wire 1 ? \reset~input_o\ $end
$var wire 1 @ \enable~input_o\ $end
$var wire 1 A \s_count[16]~42_combout\ $end
$var wire 1 B \s_count[1]~35\ $end
$var wire 1 C \s_count[2]~36_combout\ $end
$var wire 1 D \s_count[2]~37\ $end
$var wire 1 E \s_count[3]~38_combout\ $end
$var wire 1 F \s_count[3]~39\ $end
$var wire 1 G \s_count[4]~43_combout\ $end
$var wire 1 H \s_count[4]~44\ $end
$var wire 1 I \s_count[5]~45_combout\ $end
$var wire 1 J \s_count[5]~46\ $end
$var wire 1 K \s_count[6]~47_combout\ $end
$var wire 1 L \Equal0~0_combout\ $end
$var wire 1 M \s_count[6]~48\ $end
$var wire 1 N \s_count[7]~49_combout\ $end
$var wire 1 O \s_count[7]~50\ $end
$var wire 1 P \s_count[8]~51_combout\ $end
$var wire 1 Q \s_count[8]~52\ $end
$var wire 1 R \s_count[9]~53_combout\ $end
$var wire 1 S \s_count[9]~54\ $end
$var wire 1 T \s_count[10]~55_combout\ $end
$var wire 1 U \s_count[10]~56\ $end
$var wire 1 V \s_count[11]~57_combout\ $end
$var wire 1 W \s_count[11]~58\ $end
$var wire 1 X \s_count[12]~59_combout\ $end
$var wire 1 Y \s_count[12]~60\ $end
$var wire 1 Z \s_count[13]~61_combout\ $end
$var wire 1 [ \s_count[13]~62\ $end
$var wire 1 \ \s_count[14]~63_combout\ $end
$var wire 1 ] \s_count[14]~64\ $end
$var wire 1 ^ \s_count[15]~65_combout\ $end
$var wire 1 _ \s_count[15]~66\ $end
$var wire 1 ` \s_count[16]~67_combout\ $end
$var wire 1 a \s_count[16]~68\ $end
$var wire 1 b \s_count[17]~69_combout\ $end
$var wire 1 c \s_count[17]~70\ $end
$var wire 1 d \s_count[18]~71_combout\ $end
$var wire 1 e \Equal0~3_combout\ $end
$var wire 1 f \Equal0~2_combout\ $end
$var wire 1 g \Equal0~4_combout\ $end
$var wire 1 h \s_count[18]~72\ $end
$var wire 1 i \s_count[19]~73_combout\ $end
$var wire 1 j \s_count[19]~74\ $end
$var wire 1 k \s_count[20]~75_combout\ $end
$var wire 1 l \s_count[20]~76\ $end
$var wire 1 m \s_count[21]~77_combout\ $end
$var wire 1 n \s_count[21]~78\ $end
$var wire 1 o \s_count[22]~79_combout\ $end
$var wire 1 p \s_count[22]~80\ $end
$var wire 1 q \s_count[23]~81_combout\ $end
$var wire 1 r \s_count[23]~82\ $end
$var wire 1 s \s_count[24]~83_combout\ $end
$var wire 1 t \s_count[24]~84\ $end
$var wire 1 u \s_count[25]~85_combout\ $end
$var wire 1 v \s_count[25]~86\ $end
$var wire 1 w \s_count[26]~87_combout\ $end
$var wire 1 x \s_count[26]~88\ $end
$var wire 1 y \s_count[27]~89_combout\ $end
$var wire 1 z \s_count[27]~90\ $end
$var wire 1 { \s_count[28]~91_combout\ $end
$var wire 1 | \s_count[28]~92\ $end
$var wire 1 } \s_count[29]~93_combout\ $end
$var wire 1 ~ \s_count[29]~94\ $end
$var wire 1 !! \s_count[30]~95_combout\ $end
$var wire 1 "! \s_count[30]~96\ $end
$var wire 1 #! \s_count[31]~97_combout\ $end
$var wire 1 $! \Equal0~7_combout\ $end
$var wire 1 %! \Equal0~6_combout\ $end
$var wire 1 &! \Equal0~5_combout\ $end
$var wire 1 '! \Equal0~8_combout\ $end
$var wire 1 (! \Equal0~1_combout\ $end
$var wire 1 )! \Equal0~9_combout\ $end
$var wire 1 *! \s_count[16]~40_combout\ $end
$var wire 1 +! \s_count[16]~41_combout\ $end
$var wire 1 ,! \Equal0~10_combout\ $end
$var wire 1 -! \timerOut~reg0_q\ $end
$var wire 1 .! s_count [31] $end
$var wire 1 /! s_count [30] $end
$var wire 1 0! s_count [29] $end
$var wire 1 1! s_count [28] $end
$var wire 1 2! s_count [27] $end
$var wire 1 3! s_count [26] $end
$var wire 1 4! s_count [25] $end
$var wire 1 5! s_count [24] $end
$var wire 1 6! s_count [23] $end
$var wire 1 7! s_count [22] $end
$var wire 1 8! s_count [21] $end
$var wire 1 9! s_count [20] $end
$var wire 1 :! s_count [19] $end
$var wire 1 ;! s_count [18] $end
$var wire 1 <! s_count [17] $end
$var wire 1 =! s_count [16] $end
$var wire 1 >! s_count [15] $end
$var wire 1 ?! s_count [14] $end
$var wire 1 @! s_count [13] $end
$var wire 1 A! s_count [12] $end
$var wire 1 B! s_count [11] $end
$var wire 1 C! s_count [10] $end
$var wire 1 D! s_count [9] $end
$var wire 1 E! s_count [8] $end
$var wire 1 F! s_count [7] $end
$var wire 1 G! s_count [6] $end
$var wire 1 H! s_count [5] $end
$var wire 1 I! s_count [4] $end
$var wire 1 J! s_count [3] $end
$var wire 1 K! s_count [2] $end
$var wire 1 L! s_count [1] $end
$var wire 1 M! s_count [0] $end
$upscope $end
$upscope $end
$enddefinitions $end
#0
$dumpvars
0!
0"
1#
0$
0%
0&
1'
x(
1)
1*
1+
1,
1-
1.
0/
10
01
02
03
08
09
0:
1;
0<
0=
0>
1?
0@
1A
1B
0C
0D
0E
1F
0G
0H
0I
1J
0K
1L
0M
0N
1O
0P
0Q
0R
1S
0T
0U
0V
1W
0X
0Y
0Z
1[
0\
0]
0^
1_
0`
0a
0b
1c
0d
1e
1f
1g
0h
0i
1j
0k
0l
0m
1n
0o
0p
0q
1r
0s
0t
0u
1v
0w
0x
0y
1z
0{
0|
0}
1~
0!!
0"!
0#!
1$!
1%!
1&!
1'!
1(!
1)!
0*!
1+!
0,!
0-!
0.!
0/!
00!
01!
02!
03!
04!
05!
06!
07!
08!
09!
0:!
0;!
0<!
0=!
0>!
0?!
0@!
0A!
0B!
0C!
0D!
0E!
0F!
0G!
0H!
0I!
0J!
0K!
0L!
0M!
14
15
16
07
$end
#10000
1!
11
19
17
1:
#20000
0!
01
09
07
0:
#30000
1!
11
19
17
1:
#40000
0!
0#
1"
01
00
12
1@
0?
09
07
1*!
0:
#50000
1!
11
19
17
1:
#60000
0!
1$
01
1/
1<
09
07
0+!
0:
#70000
1!
11
19
17
1:
1M!
0;
1=
1,!
1>
#80000
0!
0$
01
0/
0<
09
07
0:
#90000
1!
11
19
17
1:
1L!
0M!
1-!
1;
0=
0>
0B
1C
1>
1B
18
0C
13
1%
#100000
0!
01
09
07
0:
#110000
1!
11
19
17
1:
1M!
0;
1=
0>
0B
1C
#120000
0!
01
09
07
0:
#130000
1!
11
19
17
1:
0L!
1K!
0M!
1;
0=
0C
1D
1>
1B
1C
0D
1E
0>
0E
#140000
0!
01
09
07
0:
#150000
1!
11
19
17
1:
1M!
0;
1=
1>
#160000
0!
01
09
07
0:
#170000
1!
11
19
17
1:
1L!
0M!
1;
0=
0>
0B
0*!
1+!
0C
1D
1>
1B
1C
0D
1E
0E
#180000
0!
01
09
07
0:
#190000
1!
11
19
17
1:
0L!
0K!
0C
0>
1*!
0,!
#200000
0!
01
09
07
0:
#210000
1!
11
19
17
1:
0-!
08
03
0%
#220000
0!
01
09
07
0:
#230000
1!
11
19
17
1:
#240000
0!
01
09
07
0:
#250000
1!
11
19
17
1:
#260000
0!
01
09
07
0:
#270000
1!
11
19
17
1:
#280000
0!
01
09
07
0:
#290000
1!
11
19
17
1:
#300000
0!
01
09
07
0:
#310000
1!
11
19
17
1:
#320000
0!
1$
01
1/
1<
09
07
0+!
0:
#330000
1!
11
19
17
1:
1M!
0;
1=
1,!
1>
#340000
0!
0$
01
0/
0<
09
07
0:
#350000
1!
11
19
17
1:
1L!
0M!
1-!
1;
0=
0>
0B
1C
1>
1B
18
0C
13
1%
#360000
0!
01
09
07
0:
#370000
1!
11
19
17
1:
1M!
0;
1=
0>
0B
1C
#380000
0!
01
09
07
0:
#390000
1!
11
19
17
1:
0L!
1K!
0M!
1;
0=
0C
1D
1>
1B
1C
0D
1E
0>
0E
#400000
0!
01
09
07
0:
#410000
1!
11
19
17
1:
1M!
0;
1=
1>
#420000
0!
01
09
07
0:
#430000
1!
11
19
17
1:
1L!
0M!
1;
0=
0>
0B
0*!
1+!
0C
1D
1>
1B
1C
0D
1E
0E
#440000
0!
01
09
07
0:
#450000
1!
11
19
17
1:
0L!
0K!
0C
0>
1*!
0,!
#460000
0!
0"
01
02
0@
09
07
0A
0:
#470000
1!
11
19
17
1:
0-!
08
03
0%
#480000
0!
01
09
07
0:
#490000
1!
11
19
17
1:
#500000
0!
01
09
07
0:
#510000
1!
11
19
17
1:
#520000
0!
01
09
07
0:
#530000
1!
11
19
17
1:
#540000
0!
01
09
07
0:
#550000
1!
11
19
17
1:
#560000
0!
1"
01
12
1@
09
07
1A
0:
#570000
1!
1$
11
1/
1<
19
17
0+!
1:
1M!
0;
1=
1,!
1>
#580000
0!
01
09
07
0:
#590000
1!
11
19
17
1:
1L!
0M!
1-!
1;
0=
0>
0B
1C
1>
1B
18
0C
13
1%
#600000
0!
01
09
07
0:
#610000
1!
11
19
17
1:
1M!
0;
1=
0>
0B
1C
#620000
0!
01
09
07
0:
#630000
1!
0$
11
0/
0<
19
17
1:
0L!
1K!
0M!
1;
0=
0C
1D
1>
1B
1C
0D
1E
0>
0E
#640000
0!
01
09
07
0:
#650000
1!
11
19
17
1:
1M!
0;
1=
1>
#660000
0!
01
09
07
0:
#670000
1!
11
19
17
1:
1L!
0M!
1;
0=
0>
0B
0*!
1+!
0C
1D
1>
1B
1C
0D
1E
0E
#680000
0!
01
09
07
0:
#690000
1!
11
19
17
1:
0L!
0K!
0C
0>
1*!
0,!
#700000
0!
01
09
07
0:
#710000
1!
11
19
17
1:
0-!
08
03
0%
#720000
0!
01
09
07
0:
#730000
1!
11
19
17
1:
#740000
0!
01
09
07
0:
#750000
1!
11
19
17
1:
#760000
0!
01
09
07
0:
#770000
1!
11
19
17
1:
#780000
0!
01
09
07
0:
#790000
1!
11
19
17
1:
#800000
0!
01
09
07
0:
#810000
1!
11
19
17
1:
#820000
0!
01
09
07
0:
#830000
1!
11
19
17
1:
#840000
0!
01
09
07
0:
#850000
1!
1$
11
1/
1<
19
17
0+!
1:
1M!
0;
1=
1,!
1>
#860000
0!
01
09
07
0:
#870000
1!
11
19
17
1:
1L!
0M!
1-!
1;
0=
0>
0B
1C
1>
1B
18
0C
13
1%
#880000
0!
01
09
07
0:
#890000
1!
11
19
17
1:
1M!
0;
1=
0>
0B
1C
#900000
0!
0$
01
0/
0<
09
07
0:
#910000
1!
11
19
17
1:
0L!
1K!
0M!
1;
0=
0C
1D
1>
1B
1C
0D
1E
0>
0E
#920000
0!
0"
01
02
0@
09
07
0A
0:
#930000
1!
11
19
17
1:
#940000
0!
01
09
07
0:
#950000
1!
1#
11
10
1?
19
17
1A
0*!
1+!
1:
0K!
0C
0,!
#960000
0!
01
09
07
0:
#970000
1!
11
19
17
1:
0-!
08
03
0%
#980000
0!
01
09
07
0:
#990000
1!
11
19
17
1:
